%!PS-Adobe-3.0 EPSF-3.0
%%Creator: cairo 1.13.1 (http://cairographics.org)
%%CreationDate: Wed May 21 12:54:59 2014
%%Pages: 1
%%DocumentData: Clean7Bit
%%LanguageLevel: 2
%%BoundingBox: 0 -1 788 225
%%EndComments
%%BeginProlog
save
50 dict begin
/q { gsave } bind def
/Q { grestore } bind def
/cm { 6 array astore concat } bind def
/w { setlinewidth } bind def
/J { setlinecap } bind def
/j { setlinejoin } bind def
/M { setmiterlimit } bind def
/d { setdash } bind def
/m { moveto } bind def
/l { lineto } bind def
/c { curveto } bind def
/h { closepath } bind def
/re { exch dup neg 3 1 roll 5 3 roll moveto 0 rlineto
      0 exch rlineto 0 rlineto closepath } bind def
/S { stroke } bind def
/f { fill } bind def
/f* { eofill } bind def
/n { newpath } bind def
/W { clip } bind def
/W* { eoclip } bind def
/BT { } bind def
/ET { } bind def
/pdfmark where { pop globaldict /?pdfmark /exec load put }
    { globaldict begin /?pdfmark /pop load def /pdfmark
    /cleartomark load def end } ifelse
/BDC { mark 3 1 roll /BDC pdfmark } bind def
/EMC { mark /EMC pdfmark } bind def
/cairo_store_point { /cairo_point_y exch def /cairo_point_x exch def } def
/Tj { show currentpoint cairo_store_point } bind def
/TJ {
  {
    dup
    type /stringtype eq
    { show } { -0.001 mul 0 cairo_font_matrix dtransform rmoveto } ifelse
  } forall
  currentpoint cairo_store_point
} bind def
/cairo_selectfont { cairo_font_matrix aload pop pop pop 0 0 6 array astore
    cairo_font exch selectfont cairo_point_x cairo_point_y moveto } bind def
/Tf { pop /cairo_font exch def /cairo_font_matrix where
      { pop cairo_selectfont } if } bind def
/Td { matrix translate cairo_font_matrix matrix concatmatrix dup
      /cairo_font_matrix exch def dup 4 get exch 5 get cairo_store_point
      /cairo_font where { pop cairo_selectfont } if } bind def
/Tm { 2 copy 8 2 roll 6 array astore /cairo_font_matrix exch def
      cairo_store_point /cairo_font where { pop cairo_selectfont } if } bind def
/g { setgray } bind def
/rg { setrgbcolor } bind def
/d1 { setcachedevice } bind def
%%EndProlog
%%BeginSetup
%%EndSetup
%%Page: 1 1
%%BeginPageSetup
%%PageBoundingBox: 0 -1 788 225
%%EndPageSetup
q 0 -1 788 226 rectclip q
0.137255 0.121569 0.12549 rg
32.758 176.486 m 32.469 176.354 32.18 176.221 31.891 176.088 c 22.145 189.135
 15.617 203.975 8.656 218.592 c 8.129 197.592 15.078 176.451 29.391 162.069
 c 39.332 172.244 47.023 184.354 56.66 194.217 c 44.68 202.678 31.352 212.549
 16.273 219.654 c 14.047 220.705 11.582 221.248 9.227 222.026 c 12.723 213.865
 16.719 206.436 20.703 199.006 c 24.727 191.502 28.738 183.994 32.758 176.486
 c 3.816 111.397 m 13.641 103.768 21.922 96.162 27.328 85.783 c 29.395 81.811
 32.324 78.229 35.199 74.748 c 59.523 45.315 90.051 23.373 122.016 3.201
 c 122.688 2.776 124.203 3.127 125.031 3.615 c 128.414 5.604 131.824 7.6
 134.969 9.936 c 150.527 21.471 166.34 32.694 181.41 44.842 c 195.898 56.518
 208.887 69.861 218.934 85.709 c 224.762 94.908 232.504 102.033 241.93 108.647
 c 238.023 113.311 234.02 118.088 229.871 123.041 c 231.551 123.139 233.004
 123.225 235.227 123.354 c 228.172 130.272 225.938 139.014 222.5 147.186
 c 220.762 151.33 218.562 155.358 216.059 159.092 c 198.578 185.147 173.395
 198.928 143.105 204.35 c 136.016 205.619 131.637 210.229 131.348 217.494
 c 125.547 215.631 119.59 213.924 116.336 208.256 c 115.172 206.221 113.867
 205.717 111.859 205.361 c 103.879 203.959 95.711 203.111 88.012 200.756
 c 59.98 192.186 37.746 176.08 24.699 149.123 c 20.922 141.319 17.879 133.19
 10.98 126.647 c 13.184 126.479 14.695 126.369 16.32 126.244 c 12.059 121.19
 8 116.369 3.816 111.397 c 210.824 170.447 m 211.004 170.299 l 212.656 167.92
 214.309 165.541 215.992 163.119 c 233.152 178.111 238.738 207.194 235.547
 222.264 c 217.133 215.854 202.305 203.795 187 193.389 c 194.504 185.861
 201.762 178.569 209.059 171.311 c 209.496 170.873 210.23 170.729 210.824
 170.447 c 68.16 194.658 m 81.074 201.33 94.832 205.303 109.301 206.74 c
 112.008 207.006 113.879 207.803 115.738 210.299 c 120.188 216.283 127.047
 218.412 134.145 219.654 c 134.262 219.674 134.441 219.334 134.59 219.158
 c 132.113 213.139 135.566 207.615 142.602 206.01 c 149.598 204.416 156.691
 203.049 163.48 200.787 c 170.262 198.529 176.715 195.283 182.98 192.615
 c 191.363 198.401 199.66 204.498 208.336 209.99 c 215.273 214.377 222.492
 218.428 229.93 221.889 c 237.023 225.19 238.109 224.158 238.141 216.479
 c 238.219 198.186 233.891 181.33 222.094 166.885 c 220.441 164.858 217.719
 162.928 217.492 160.748 c 217.281 158.69 219.828 156.416 220.949 154.135
 c 222.688 150.604 224.609 147.1 225.797 143.373 c 228.43 135.154 232.316
 127.811 239.492 121.697 c 237.254 121.584 235.641 121.502 234.016 121.42
 c 237.656 116.522 241.207 111.74 244.625 107.139 c 241.934 105.756 239.551
 104.983 237.73 103.51 c 231.043 98.104 224.926 92.194 220.27 84.783 c 210.094
 68.584 196.48 55.432 182.109 43.049 c 164.484 27.869 145.586 14.412 125.883
 2.065 c 123.969 0.869 122.559 0.69 120.566 1.951 c 94.094 18.662 68.871
 36.986 46.75 59.283 c 37.074 69.037 28.816 79.834 21.699 91.69 c 17.059
 99.416 9.836 105.256 1.57 110.506 c 5.062 115.147 8.574 119.819 12.203 
124.643 c 10.668 124.772 9.152 124.901 6.602 125.119 c 19.191 134.252 21.066
 149.072 28.965 160.354 c 12.242 176.123 6.32 195.971 6.766 218.248 c 6.875
 223.678 7.879 224.635 13.027 222.592 c 18.387 220.467 23.734 218.026 28.586
 214.94 c 39.055 208.279 49.203 201.119 59.473 194.147 c 60.016 193.779 
61.848 192.686 62.484 192.135 c h
68.16 194.658 m f*
2.163121 w
0 J
0 j
[] 0.0 d
10 M q 1 0 0 1 0 224.744308 cm
38.004 -54.289 m 37.711 -54.422 37.422 -54.555 37.133 -54.688 c 27.391 
-41.641 15.617 -20.77 8.656 -6.152 c 8.129 -27.152 14.641 -48.379 28.953
 -62.766 c 38.898 -52.59 49.82 -42.84 59.457 -32.977 c 47.477 -24.516 31.352
 -12.195 16.273 -5.09 c 14.047 -4.039 11.582 -3.496 9.227 -2.719 c 12.723
 -10.879 16.719 -18.309 20.703 -25.738 c 24.727 -33.242 33.984 -46.781 38.004
 -54.289 c h
3.816 -113.348 m 13.641 -120.977 21.922 -128.582 27.328 -138.961 c 29.395
 -142.934 32.324 -146.516 35.199 -149.996 c 59.523 -179.43 90.051 -201.371
 122.016 -221.543 c 122.688 -221.969 124.203 -221.617 125.031 -221.129 c
 128.414 -219.141 131.824 -217.145 134.969 -214.809 c 150.527 -203.273 166.34
 -192.051 181.41 -179.902 c 195.898 -168.227 208.887 -154.883 218.934 -139.035
 c 224.762 -129.836 232.504 -122.711 241.93 -116.098 c 238.023 -111.434 
234.02 -106.656 229.871 -101.703 c 231.551 -101.605 233.004 -101.52 235.227
 -101.391 c 228.172 -94.473 225.938 -85.73 222.5 -77.559 c 220.762 -73.414
 218.562 -69.387 216.059 -65.652 c 198.578 -39.598 173.395 -25.816 143.105
 -20.395 c 136.016 -19.125 131.637 -14.516 131.348 -7.25 c 125.547 -9.113
 119.59 -10.82 116.336 -16.488 c 115.172 -18.523 113.867 -19.027 111.859
 -19.383 c 103.879 -20.785 95.711 -21.633 88.012 -23.988 c 59.98 -32.559
 37.746 -48.664 24.699 -75.621 c 20.922 -83.426 17.879 -91.555 10.98 -98.098
 c 13.184 -98.266 14.695 -98.375 16.32 -98.5 c 12.059 -103.555 8 -108.375
 3.816 -113.348 c h
210.824 -54.297 m 211.004 -54.445 l 212.656 -56.824 214.309 -59.203 215.992
 -61.625 c 233.152 -46.633 238.738 -17.551 235.547 -2.48 c 217.133 -8.891
 202.305 -20.949 187 -31.355 c 194.504 -38.883 201.762 -46.176 209.059 -53.434
 c 209.496 -53.871 210.23 -54.016 210.824 -54.297 c h
68.16 -30.086 m 81.074 -23.414 94.832 -19.441 109.301 -18.004 c 112.008
 -17.738 113.879 -16.941 115.738 -14.445 c 120.188 -8.461 127.047 -6.332
 134.145 -5.09 c 134.262 -5.07 134.441 -5.41 134.59 -5.586 c 132.113 -11.605
 135.566 -17.129 142.602 -18.734 c 149.598 -20.328 156.691 -21.695 163.48
 -23.957 c 170.262 -26.215 176.715 -29.461 182.98 -32.129 c 191.363 -26.344
 199.66 -20.246 208.336 -14.754 c 215.273 -10.367 222.492 -6.316 229.93 
-2.855 c 237.023 0.445 238.109 -0.586 238.141 -8.266 c 238.219 -26.559 233.891
 -43.414 222.094 -57.859 c 220.441 -59.887 217.719 -61.816 217.492 -63.996
 c 217.281 -66.055 219.828 -68.328 220.949 -70.609 c 222.688 -74.141 224.609
 -77.645 225.797 -81.371 c 228.43 -89.59 232.316 -96.934 239.492 -103.047
 c 237.254 -103.16 235.641 -103.242 234.016 -103.324 c 237.656 -108.223 
241.207 -113.004 244.625 -117.605 c 241.934 -118.988 239.551 -119.762 237.73
 -121.234 c 231.043 -126.641 224.926 -132.551 220.27 -139.961 c 210.094 
-156.16 196.48 -169.312 182.109 -181.695 c 164.484 -196.875 145.586 -210.332
 125.883 -222.68 c 123.969 -223.875 122.559 -224.055 120.566 -222.793 c 
94.094 -206.082 68.871 -187.758 46.75 -165.461 c 37.074 -155.707 28.816 
-144.91 21.699 -133.055 c 17.059 -125.328 9.836 -119.488 1.57 -114.238 c
 5.062 -109.598 8.574 -104.926 12.203 -100.102 c 10.668 -99.973 9.152 -99.844
 6.602 -99.625 c 19.191 -90.492 21.066 -75.672 28.965 -64.391 c 12.242 -48.621
 6.32 -28.773 6.766 -6.496 c 6.875 -1.066 7.879 -0.109 13.027 -2.152 c 18.387
 -4.277 23.734 -6.719 28.586 -9.805 c 39.055 -16.465 49.203 -23.625 59.473
 -30.598 c 60.016 -30.965 61.848 -32.059 62.484 -32.609 c h
68.16 -30.086 m S Q
75.32 134.776 m 74.492 134.776 73.809 134.76 73.176 134.725 c 70.859 134.596
 69.539 134.123 68.762 133.147 c 68.004 132.201 67.824 130.826 68.184 128.686
 c 69.188 122.678 71.965 117.619 76.441 113.658 c 78.836 111.537 81.941 
110.416 85.422 110.416 c 92.551 110.416 98.996 115.119 100.41 121.35 c 100.809
 123.111 100.387 125.854 99.141 126.979 c 97.52 128.44 95.625 129.51 93.426
 130.748 c 92.48 131.283 91.5 131.838 90.469 132.463 c 89.301 133.174 l 
89.488 131.819 l 90.48 124.686 87.477 120.725 83.922 117.592 c 78.426 124.705
 78.285 129.272 79.789 133.893 c 80.062 134.74 l 79.172 134.74 l 78.434 
134.74 77.742 134.752 77.082 134.76 c 76.473 134.768 75.891 134.776 75.32
 134.776 c 105.336 93.889 m 104.988 95.557 104.688 96.998 104.285 98.416
 c 102.559 104.526 99.922 106.541 93.438 106.717 c 92.328 106.748 91.207
 106.752 90.355 106.752 c 87.867 106.748 l 84.293 106.748 80.512 106.819
 77.043 107.697 c 66.34 110.401 58.484 116.979 54.328 126.729 c 52.094 131.975
 52.367 137.342 55.086 141.455 c 57.785 145.541 62.516 147.881 68.062 147.881
 c 68.711 147.881 69.379 147.85 70.043 147.787 c 73.438 147.459 76.25 146.83
 78.641 145.861 c 90.625 141.006 100.07 133.303 106.719 122.971 c 112.473
 114.029 112.875 104.951 107.922 95.983 c 107.438 95.111 106.84 94.291 106.086
 93.256 c 105.93 93.045 105.773 92.826 105.605 92.6 c 105.512 93.045 105.422
 93.475 105.336 93.889 c f*
85.422 111.065 m 82.32 111.065 79.262 112.029 76.871 114.147 c 72.473 118.037
 69.789 123.01 68.824 128.795 c 68.18 132.627 69.289 133.858 73.215 134.076
 c 73.906 134.115 74.602 134.127 75.32 134.127 c 76.504 134.127 77.754 134.092
 79.172 134.092 c 76.863 126.986 79.707 121.838 83.828 116.654 c 88.262 
120.42 91.141 124.678 90.133 131.908 c 93.539 129.838 96.453 128.529 98.707
 126.494 c 99.754 125.549 100.129 123.053 99.777 121.494 c 98.324 115.096
 91.777 111.065 85.422 111.065 c 68.062 148.529 m 56.07 148.529 48.812 138.014
 53.73 126.471 c 58.09 116.256 66.281 109.744 76.883 107.069 c 80.398 106.178
 84.129 106.1 87.867 106.1 c 88.699 106.1 89.527 106.1 90.355 106.1 c 91.379
 106.1 92.406 106.096 93.422 106.069 c 99.488 105.904 101.996 104.135 103.66
 98.24 c 104.258 96.135 104.629 93.967 105.285 91.026 c 106.684 93.037 107.723
 94.279 108.488 95.67 c 113.711 105.123 112.969 114.455 107.266 123.322 
c 100.352 134.065 90.688 141.678 78.883 146.463 c 76.137 147.576 73.074 
148.147 70.105 148.432 c 69.41 148.498 68.73 148.529 68.062 148.529 c 85.422
 109.768 m 88.871 109.768 92.336 110.85 95.176 112.815 c 98.207 114.908 
100.289 117.893 101.043 121.209 c 101.43 122.924 101.137 126.049 99.578 
127.459 c 97.902 128.971 95.977 130.057 93.746 131.315 c 92.805 131.846 
91.828 132.397 90.805 133.018 c 88.469 134.436 l 88.848 131.729 l 89.75 
125.248 87.191 121.486 84.008 118.541 c 80.305 123.447 78.5 127.826 80.406
 133.694 c 80.957 135.393 l 79.172 135.393 l 78.438 135.393 77.75 135.401
 77.09 135.408 c 76.48 135.416 75.891 135.424 75.32 135.424 c 74.477 135.424
 73.785 135.408 73.141 135.369 c 71.363 135.272 69.395 134.979 68.254 133.553
 c 67.121 132.139 67.281 130.154 67.543 128.58 c 68.57 122.42 71.422 117.236
 76.012 113.174 c 78.527 110.947 81.781 109.768 85.422 109.768 c 68.062 
147.233 m 68.691 147.233 69.336 147.201 69.98 147.139 c 73.312 146.819 76.066
 146.205 78.395 145.26 c 90.254 140.455 99.602 132.838 106.172 122.619 c
 111.785 113.897 112.184 105.041 107.352 96.299 c 106.973 95.608 106.508
 94.944 105.941 94.162 c 105.605 95.783 105.305 97.194 104.91 98.592 c 103.105
 104.971 100.215 107.186 93.457 107.365 c 92.34 107.397 91.211 107.401 90.355
 107.401 c 90.348 107.401 l 89.934 107.401 89.523 107.401 89.109 107.397
 c 88.695 107.397 88.281 107.397 87.867 107.397 c 84.332 107.397 80.598 
107.467 77.203 108.326 c 66.703 110.979 59 117.428 54.926 126.983 c 52.777
 132.026 53.031 137.17 55.629 141.096 c 58.203 144.998 62.734 147.233 68.062
 147.233 c f
154.879 133.873 m 153.988 133.412 153.156 132.994 152.359 132.592 c 150.648
 131.729 149.172 130.983 147.699 130.147 c 145.062 128.651 144.117 126.194
 144.895 122.854 c 146.281 116.865 153.145 111.994 160.191 111.994 c 162.738
 111.994 165.09 112.662 166.984 113.924 c 172.707 117.74 176.176 123.654
 177.293 131.502 c 177.5 132.983 175.965 135.49 174.641 135.83 c 172.773
 136.307 170.836 136.354 168.781 136.401 c 167.961 136.42 167.109 136.44
 166.246 136.49 c 165.336 136.541 l 165.586 135.662 l 167.688 128.35 164.875
 123.463 161.359 119.322 c 156.578 123.701 154.969 127.76 155.816 133.197
 c 156.016 134.459 l h
137.527 92.592 m 131.41 100.658 130.016 108.682 133.391 116.459 c 140.797
 133.541 153.812 144.01 172.074 147.58 c 173.324 147.822 174.562 147.947
 175.746 147.947 c 180.711 147.947 184.855 145.783 187.723 141.686 c 191.184
 136.744 191.223 131.143 187.84 124.557 c 182.246 113.674 169.66 106.365
 156.512 106.365 c 155.531 106.365 154.547 106.404 153.578 106.486 c 152.277
 106.6 151.18 106.674 150.059 106.678 c 149.996 106.678 l 143.215 106.678
 140.234 104.346 138.602 97.764 c 138.289 96.502 138.039 95.213 137.75 93.721
 c 137.68 93.358 137.605 92.983 137.527 92.592 c f*
161.418 118.397 m 165.68 123.279 168.336 128.44 166.211 135.842 c 169.188
 135.67 171.941 135.85 174.48 135.201 c 175.488 134.94 176.809 132.729 176.648
 131.592 c 175.652 124.584 172.664 118.49 166.621 114.463 c 164.738 113.209
 162.5 112.643 160.191 112.643 c 153.824 112.643 146.93 116.947 145.527 
122.998 c 144.891 125.744 145.422 128.108 148.02 129.584 c 150.172 130.807
 152.414 131.869 155.176 133.295 c 154.137 126.651 156.922 122.358 161.418
 118.397 c 175.746 148.596 m 174.504 148.596 173.234 148.467 171.949 148.217
 c 153.477 144.608 140.223 133.846 132.793 116.717 c 128.977 107.92 131.25
 99.26 137.891 91.08 c 138.445 93.819 138.766 95.729 139.23 97.608 c 140.797
 103.924 143.496 106.029 149.996 106.029 c 150.059 106.029 l 151.215 106.026
 152.371 105.94 153.523 105.842 c 154.52 105.756 155.516 105.717 156.512
 105.717 c 169.699 105.717 182.648 113.037 188.414 124.26 c 191.434 130.131
 192.305 136.272 188.254 142.061 c 185.094 146.572 180.652 148.596 175.746
 148.596 c 161.301 120.268 m 157.086 124.303 155.676 128.096 156.457 133.096
 c 156.855 135.623 l 154.582 134.451 l 153.695 133.99 152.859 133.572 152.066
 133.17 c 150.348 132.303 148.863 131.557 147.379 130.713 c 145.375 129.572
 143.207 127.256 144.262 122.705 c 144.996 119.533 147.129 116.611 150.27
 114.479 c 153.195 112.486 156.812 111.346 160.191 111.346 c 162.867 111.346
 165.34 112.049 167.344 113.385 c 173.227 117.307 176.789 123.373 177.934
 131.412 c 178.211 133.35 176.301 136.072 174.801 136.459 c 172.863 136.955
 170.891 137.002 168.797 137.049 c 167.98 137.069 167.133 137.088 166.285
 137.139 c 164.457 137.244 l 164.961 135.483 l 166.891 128.764 164.488 124.158
 161.301 120.268 c 175.746 147.299 m 180.492 147.299 184.449 145.229 187.191
 141.315 c 190.5 136.588 190.523 131.205 187.262 124.854 c 181.777 114.182
 169.422 107.014 156.512 107.014 c 155.551 107.014 154.582 107.053 153.637
 107.135 c 152.496 107.233 151.273 107.322 150.062 107.326 c 149.996 107.326
 l 142.93 107.326 139.672 104.776 137.973 97.92 c 137.68 96.736 137.441 
95.537 137.176 94.174 c 131.953 101.639 130.875 109.037 133.984 116.201 
c 137.605 124.549 142.672 131.389 149.047 136.526 c 155.445 141.686 163.234
 145.19 172.199 146.944 c 173.41 147.178 174.602 147.299 175.746 147.299
 c f
122.402 66.709 m 121.766 66.709 121.109 66.998 120.402 67.588 c 119.207
 68.576 118.012 69.557 116.812 70.541 c 114.645 72.319 112.402 74.154 110.246
 76.006 c 110.039 76.182 109.855 76.553 109.684 76.94 c 110.043 77.119 110.398
 77.283 110.648 77.287 c 112.348 77.326 114.148 77.346 116.5 77.346 c 117.551
 77.346 118.598 77.342 119.645 77.338 c 120.695 77.334 121.746 77.33 122.797
 77.33 c 123.801 77.33 124.801 77.334 125.805 77.338 c 126.805 77.342 127.801
 77.346 128.801 77.346 c 130.984 77.346 132.664 77.326 134.246 77.283 c 
134.473 77.279 134.836 77.084 135.18 76.889 c 135.051 76.596 134.918 76.322
 134.777 76.205 c 132.207 74.01 129.543 71.822 126.973 69.709 c 126.098 
68.99 125.227 68.276 124.355 67.557 c 123.664 66.986 123.023 66.709 122.402
 66.709 c f*
128.801 78.428 m 126.801 78.428 124.801 78.412 122.797 78.412 c 120.699
 78.412 118.602 78.428 116.5 78.428 c 114.543 78.428 112.582 78.416 110.625
 78.369 c 109.828 78.35 109.039 77.768 108.25 77.444 c 108.668 76.682 108.922
 75.717 109.539 75.186 c 112.883 72.319 116.324 69.569 119.711 66.756 c 
120.613 66.006 121.508 65.627 122.402 65.627 c 123.277 65.627 124.16 65.99
 125.043 66.725 c 128.531 69.6 132.043 72.447 135.48 75.381 c 136.02 75.838
 136.223 76.69 136.582 77.358 c 135.812 77.709 135.051 78.342 134.273 78.365
 c 132.453 78.416 130.629 78.428 128.801 78.428 c 128.801 76.264 m 130.488
 76.264 131.871 76.252 133.137 76.229 c 130.867 74.307 128.543 72.397 126.285
 70.545 c 125.41 69.826 124.539 69.111 123.668 68.393 c 123.184 67.994 122.758
 67.791 122.402 67.791 c 122.031 67.791 121.594 68.002 121.09 68.42 c 119.895
 69.412 118.676 70.412 117.496 71.377 c 115.566 72.959 113.582 74.584 111.652
 76.225 c 113.062 76.252 114.605 76.264 116.504 76.264 c 117.551 76.264 
118.598 76.26 119.645 76.256 c 120.695 76.252 121.746 76.248 122.797 76.248
 c 123.801 76.248 124.805 76.252 125.809 76.256 c 126.809 76.26 127.805 
76.264 128.801 76.264 c f
31.715 102.76 m 59.027 72.494 84.676 39.869 112.457 9.084 c 107.074 11.315
 35.406 94.694 31.715 102.76 c f*
q 1 0 0 1 0 224.744308 cm
30.727 -122.23 m 58.039 -152.496 84.562 -184.598 112.34 -215.383 c 106.961
 -213.152 34.418 -130.301 30.727 -122.23 c h
30.727 -122.23 m S Q
115.488 43.338 m 117.504 44.033 120.137 44.447 122.879 44.447 c 125.613
 44.447 128.055 44.053 129.949 43.338 c h
115.488 43.338 m f*
122.879 45.529 m 118.145 45.529 113.406 44.33 111.539 42.26 c 133.703 42.26
 l 131.562 44.522 127.219 45.529 122.879 45.529 c f
210.824 170.447 m 213.625 175.885 216.367 181.354 219.234 186.756 c 224.117
 195.955 229.074 205.115 234.078 214.432 c 234.309 214.037 234.512 213.842
 234.473 213.74 c 228.621 199.463 222.09 185.537 213.293 172.787 c 212.66
 171.869 211.773 171.123 211.004 170.299 c h
210.824 170.447 m f*
q 1 0 0 1 0 224.744308 cm
210.824 -54.297 m 213.625 -48.859 216.367 -43.391 219.234 -37.988 c 224.117
 -28.789 232.047 -15.523 237.047 -6.207 c 237.277 -6.598 237.484 -6.797 
237.441 -6.895 c 231.594 -21.172 222.09 -39.207 213.293 -51.957 c 212.66
 -52.875 211.773 -53.621 211.004 -54.445 c h
210.824 -54.297 m S Q
q -1 0 0 1 0 224.744308 cm
-215.438 -122.746 m -188.125 -153.016 -162.211 -185.203 -134.434 -215.988
 c -139.816 -213.758 -211.742 -130.816 -215.438 -122.746 c h
-215.438 -122.746 m S Q
0 g
335.723 97.377 m 335.723 78.846 l 359.254 78.846 l 359.254 44.721 l 359.254
 27.955 348.957 20.002 336.301 20.002 c 325.426 20.002 313.363 26.768 313.363
 44.721 c 313.363 165.908 l 313.363 182.393 323.363 190.33 336.301 190.33
 c 348.957 190.33 359.254 182.393 359.254 165.627 c 380.145 165.627 l 379.848
 192.393 361.613 210.924 336.301 210.924 c 310.426 210.924 292.473 192.096
 292.473 165.033 c 292.473 45.299 l 292.473 18.533 310.426 0.002 336.301
 0.002 c 362.191 0.002 380.145 18.533 380.145 45.299 c 380.145 97.377 l 
h
424.543 166.799 m 404.543 166.799 l 404.543 1.768 l 424.543 1.768 l h
427.184 195.627 m 427.184 202.69 421.309 207.986 414.84 207.986 c 407.777
 207.986 402.184 202.69 402.184 195.627 c 402.184 189.158 407.777 183.565
 414.84 183.565 c 421.309 183.565 427.184 189.158 427.184 195.627 c h
442.574 148.846 m 453.746 148.846 l 453.746 40.596 l 453.746 15.002 460.23
 0.299 489.059 0.299 c 493.168 0.299 497.871 0.893 497.871 0.893 c 497.871
 18.533 l 497.871 18.533 495.23 18.236 493.168 18.236 c 479.34 18.236 473.762
 22.361 473.762 38.533 c 473.762 148.846 l 497.871 148.846 l 497.871 166.799
 l 473.762 166.799 l 473.762 192.096 l 459.043 192.096 l 459.043 170.033
 455.512 165.908 442.574 165.908 c h
590.07 22.065 m 541.836 22.065 l 541.836 209.158 l 520.648 209.158 l 520.648
 1.768 l 590.07 1.768 l h
635.973 0.002 m 650.676 0.002 659.801 8.83 662.738 13.236 c 662.738 1.768
 l 681.566 1.768 l 681.566 166.799 l 662.738 166.799 l 662.738 155.33 l 
659.801 160.033 650.676 168.565 635.973 168.565 c 615.379 168.565 602.426
 156.205 602.426 129.736 c 602.426 39.127 l 602.426 12.361 615.379 0.002
 635.973 0.002 c h
642.145 17.658 m 630.676 17.658 622.723 24.424 622.723 38.252 c 622.723
 130.315 l 622.723 144.143 630.676 151.205 642.145 151.205 c 653.613 151.205
 661.566 144.44 661.566 131.205 c 661.566 38.252 l 661.566 24.424 653.613
 17.658 642.145 17.658 c h
754.074 0.002 m 774.965 0.002 787.621 12.361 787.621 38.83 c 787.621 130.033
 l 787.621 156.205 774.965 168.861 754.074 168.861 c 739.371 168.861 731.434
 160.33 728.48 155.33 c 728.48 224.752 l 708.48 224.752 l 708.48 1.768 l
 727.309 1.768 l 727.309 13.236 l 730.543 8.236 739.074 0.002 754.074 0.002
 c h
747.902 17.361 m 736.73 17.361 728.48 24.424 728.48 38.252 c 728.48 131.502
 l 728.48 144.44 737.012 151.502 747.902 151.502 c 759.668 151.502 767.605
 144.143 767.605 130.611 c 767.605 38.252 l 767.605 24.424 759.668 17.361
 747.902 17.361 c h
747.902 17.361 m f
Q Q
showpage
%%Trailer
end restore
%%EOF
